40 -32 -80 -160 648
-8 -16 -24 -32 -40 -400 -16 400
-80 -40 -32 -24 -16 -8 744
-8 976
-80 -160 -240 -320 -40 -32 72
992
-80 -80 -80 80 -80 -80 -80 -80 -80 200
40 -80 856
8 -80 -24 -400 -80 -336 16
40 -80 -184 -104 360 -160 16
-8 -816 -8 136
