-992
-8 -976
-992
992
-32 -24 -48 -16 840
992
992
40 -32 64 -16 808
960 -8 8
64 -32 880
-32 -56 888
56 -56 -16 840
-40 944
-24 -32 -48 -64 -24 -64 -24 -56 -32 552
992
-40 -32 -24 -72 -56 -64 -24 624
24 -32 24 -64 40 -56 704
